<?xml version="1.0" encoding="utf-8"?>
<!-- Generator: Adobe Illustrator 18.0.0, SVG Export Plug-In . SVG Version: 6.00 Build 0)  -->
<!DOCTYPE svg PUBLIC "-//W3C//DTD SVG 1.1//EN" "http://www.w3.org/Graphics/SVG/1.1/DTD/svg11.dtd">
<svg version="1.1" id="Layer_1" xmlns="http://www.w3.org/2000/svg" xmlns:xlink="http://www.w3.org/1999/xlink" x="0px" y="0px"
	 viewBox="0 0 566.9 416.7" enable-background="new 0 0 566.9 416.7" xml:space="preserve">
<circle fill="#B7B7B7" cx="283.5" cy="197.5" r="26.1"/>
<g>
	<path fill="#FFFFFF" d="M290.3,181.3h-13.7c-5.2,0-9.4,4.2-9.4,9.4v13.7c0,5.2,4.2,9.4,9.4,9.4h13.7c5.2,0,9.4-4.2,9.4-9.4v-13.7
		C299.7,185.5,295.5,181.3,290.3,181.3 M296.7,204.6c0,3.4-2.8,6.2-6.2,6.2h-14.1c-3.4,0-6.2-2.8-6.2-6.2v-14.1
		c0-3.4,2.8-6.2,6.2-6.2h14.1c3.4,0,6.2,2.8,6.2,6.2V204.6z"/>
	<path fill="#FFFFFF" d="M283.5,189.2c-4.7,0-8.4,3.8-8.4,8.4c0,4.7,3.8,8.4,8.4,8.4c4.7,0,8.4-3.8,8.4-8.4
		C291.9,192.9,288.1,189.2,283.5,189.2 M283.5,203.1c-3,0-5.5-2.4-5.5-5.5c0-3,2.4-5.5,5.5-5.5c3,0,5.5,2.4,5.5,5.5
		C288.9,200.6,286.5,203.1,283.5,203.1"/>
	<path fill="#FFFFFF" d="M292.2,186.9c-1.1,0-2,0.9-2,2s0.9,2,2,2c1.1,0,2-0.9,2-2S293.3,186.9,292.2,186.9"/>
</g>
</svg>
