<?xml version="1.0" encoding="utf-8"?>
<!-- Generator: Adobe Illustrator 17.0.0, SVG Export Plug-In . SVG Version: 6.00 Build 0)  -->
<!DOCTYPE svg PUBLIC "-//W3C//DTD SVG 1.1//EN" "http://www.w3.org/Graphics/SVG/1.1/DTD/svg11.dtd">
<svg version="1.1" id="Layer_1" xmlns="http://www.w3.org/2000/svg" xmlns:xlink="http://www.w3.org/1999/xlink" x="0px" y="0px"
	 width="390.245px" height="378.735px" viewBox="0 0 390.245 378.735" enable-background="new 0 0 390.245 378.735"
	 xml:space="preserve">
<path fill="#91298D" d="M362.064,90.93c-0.678-0.92-1.375-1.893-2.094-2.933c-25.884-37.415-60.358-50.705-77.959-55.247
	c0-0.01,0-0.016,0-0.016c-0.066-0.012-0.138-0.025-0.207-0.038c-1.926-0.494-3.647-0.882-5.126-1.185
	c-2.972-0.765-6.043-1.636-7.431-2.035c-0.352-0.113-0.704-0.225-1.054-0.346c-3.35-1.154-7.362-2.563-11.703-4.141v0
	c-0.021-0.008-0.041-0.015-0.062-0.022c-0.021-0.008-0.041-0.015-0.062-0.022v0c-4.341-1.58-8.321-3.077-11.629-4.344
	c-5.279-2.022-10.116-4.98-15.252-7.341C201.302,0.306,183.781-0.239,173.476,0.05c-67.217,5-131.613,42.289-156.63,110.938
	l-7.543,20.699c-17.794,48.83-8.946,105.148,17.041,150.117c22.31,38.605,58.632,67.586,103.82,84.021
	c49.627,18.049,100.967,17.16,145.773-2.587c43.86-19.33,80.375-55.333,96.785-100.365l6.778-18.599
	C399.516,189.347,390.356,134.605,362.064,90.93z"/>
</svg>
