<?xml version="1.0" encoding="utf-8"?>
<!-- Generator: Adobe Illustrator 17.0.0, SVG Export Plug-In . SVG Version: 6.00 Build 0)  -->
<!DOCTYPE svg PUBLIC "-//W3C//DTD SVG 1.1//EN" "http://www.w3.org/Graphics/SVG/1.1/DTD/svg11.dtd">
<svg version="1.1" id="Layer_1" xmlns="http://www.w3.org/2000/svg" xmlns:xlink="http://www.w3.org/1999/xlink" x="0px" y="0px"
	 width="500px" height="400px" viewBox="-24.194 -24.264 500 400" enable-background="new -24.194 -24.264 500 400"
	 xml:space="preserve">
<path fill="#A21C49" d="M151.315-3.254c38.889-14.589,62.455-9.121,84.339,1.145s40.972,32.872,40.972,32.872
	s26.912,32.394,31.912,37.394s16.667,9.333,22.667,11.333c50.667,22.667,61.231,37.802,65.667,46.667c4.436,8.865,20,31.667,14,83
	c-45.333,156-200.333,155.004-200.333,155.004s-83.667,7.663-145.333-81.67s7.667-210.667,7.667-210.667
	S114.425,10.001,151.315-3.254z"/>
</svg>
