<?xml version="1.0" encoding="utf-8"?>
<!-- Generator: Adobe Illustrator 18.0.0, SVG Export Plug-In . SVG Version: 6.00 Build 0)  -->
<!DOCTYPE svg PUBLIC "-//W3C//DTD SVG 1.1//EN" "http://www.w3.org/Graphics/SVG/1.1/DTD/svg11.dtd">
<svg version="1.1" id="Layer_1" xmlns="http://www.w3.org/2000/svg" xmlns:xlink="http://www.w3.org/1999/xlink" x="0px" y="0px"
	 viewBox="0 0 141 83" enable-background="new 0 0 141 83" xml:space="preserve">
<g>
	<g>
		<path fill="#1A2141" d="M36.2,71.3l0-18.3l-7.7,15.7h-2.7L18,53v18.3h-3.9V46.8H19l8.1,16.2l8-16.2H40v24.5H36.2z"/>
		<path fill="#1A2141" d="M53.2,50.5v6.6h12v3.7h-12v6.7h13.8v3.7H49V46.8h17.5v3.7H53.2z"/>
		<path fill="#1A2141" d="M91.7,71.3l-13-17.5v17.5h-4.1V46.8h4.1l13.1,17.6V46.8h4.1v24.5H91.7z"/>
		<path fill="#1A2141" d="M125.7,61.2c0,6.4-4,10.3-10.6,10.3s-10.7-3.9-10.7-10.3V46.8h4.1v14.3c0,4.1,2.6,6.6,6.6,6.6
			c4,0,6.5-2.4,6.5-6.6V46.8h4.1V61.2z"/>
	</g>
	<g>
		<rect x="15" y="27.7" fill="#1A2141" width="111.9" height="3.4"/>
	</g>
	<g>
		<rect x="35.7" y="11.5" fill="#1A2141" width="70.5" height="3.4"/>
	</g>
</g>
</svg>
